Wed May 22 11:13:55 CEST 2024
Preloading tcmalloc_minimal.so
Py:AutoConfigFlags    INFO Running an input-less job. Will have empty metadata.
ApplicationMgr    SUCCESS 
====================================================================================================================================
                                                   Welcome to ApplicationMgr (GaudiCoreSvc v38r0)
                                          running on aibuild16-024.cern.ch on Wed May 22 11:13:58 2024
====================================================================================================================================
ApplicationMgr       INFO Application Manager Configured successfully
CoreDumpSvc                                          INFO Handling signals: 11(Segmentation fault) 7(Bus error) 4(Illegal instruction) 14(Alarm clock) 
AthenaEventLoopMgr                                   INFO Initializing AthenaEventLoopMgr
ClassIDSvc                                           INFO getRegistryEntries: read 3964 CLIDRegistry entries for module ALL
WriteData                                           DEBUG Property update for OutputLevel : new value = 2
WriteData                                            INFO in initialize()
MetaDataSvc                                          INFO Initializing MetaDataSvc
PoolSvc                                             DEBUG Service base class initialized successfully
PoolSvc                                              INFO Set connectionsvc retry/timeout/IDLE timeout to  'ConnectionRetrialPeriod':300/ 'ConnectionRetrialTimeOut':3600/ 'ConnectionTimeOut':5 seconds with connection cleanup disabled
PoolSvc                                              INFO Frontier compression level set to 5
DBReplicaSvc                                         INFO Frontier server at (serverurl=http://atlasfrontier-local.cern.ch:8000/atlr)(serverurl=http://atlasfrontier-ai.cern.ch:8000/atlr)(proxyurl=http://ca-proxy-atlas.cern.ch:3128)(proxyurl=http://ca-proxy-meyrin.cern.ch:3128)(proxyurl=http://ca-proxy.cern.ch:3128)(proxyurl=http://atlasbpfrontier.cern.ch:3127) will be considered for COOL data
DBReplicaSvc                                         INFO Read replica configuration from /cvmfs/atlas-nightlies.cern.ch/repo/sw/main_Athena_x86_64-el9-gcc13-opt/2024-05-20T2101/Athena/25.0.6/InstallArea/x86_64-el9-gcc13-opt/share/dbreplica.config
DBReplicaSvc                                         INFO Total of 10 servers found for host aibuild16-024.cern.ch [ATLF ATLAS_COOLPROD atlas_dd ATLAS_CONFIG INT8R INTR ATONR_COOL ATONR_CONF DEVDB11 ATLF ]
PoolSvc                                              INFO Successfully setup replica sorting algorithm
PoolSvc                                             DEBUG OutputLevel is 2
PoolSvc                                              INFO Setting up APR FileCatalog and Streams
PoolSvc                                              INFO POOL WriteCatalog is file:Catalog2.xml
DbSession                                            INFO     Open     DbSession    
Domain[ROOT_All]                                     INFO >   Access   DbDomain     READ      [ROOT_All] 
AthenaPoolCnvSvc                                    DEBUG Setting StorageType to ROOTTREEINDEX
MetaDataSvc                                          INFO Found MetaDataTools = PublicToolHandleArray(['xAODMaker::FileMetaDataTool/xAODMaker::FileMetaDataTool'])
MetaDataSvc                                         DEBUG Registering all Tools in ToolHandleArray MetaDataTools
MetaDataSvc                                         DEBUG Adding public ToolHandle tool ToolSvc.xAODMaker::FileMetaDataTool (xAODMaker::FileMetaDataTool)
MetaDataSvc                                          INFO   AlgTool: ToolSvc.xAODMaker::FileMetaDataTool
WriteData                                           DEBUG input handles: 0
WriteData                                           DEBUG output handles: 2
WriteData                                           DEBUG data dependencies:
  + OUTPUT  ( 'ExampleHitContainer' , 'StoreGateSvc+MyHits' ) 
  + OUTPUT  ( 'ExampleHitContainer' , 'StoreGateSvc+PetersHits' ) 
WriteCond                                           DEBUG Property update for OutputLevel : new value = 2
WriteCond                                            INFO in initialize()
WriteCond                                           DEBUG input handles: 1
WriteCond                                           DEBUG output handles: 0
WriteCond                                           DEBUG data dependencies:
  + INPUT   ( 'ExampleHitContainer' , 'StoreGateSvc+MyHits' ) 
ClassIDSvc                                           INFO getRegistryEntries: read 1664 CLIDRegistry entries for module ALL
DecisionSvc                                          INFO Inserting stream: StreamExampleMeta with no Algs
AthDictLoaderSvc                                     INFO in initialize...
AthDictLoaderSvc                                     INFO acquired Dso-registry
StreamExampleMeta.StreamExampleMetaTool              INFO Initializing StreamExampleMeta.StreamExampleMetaTool
TagInfoMgr                                           INFO   AlgTool: ToolSvc.IOVDbMetaDataTool
StreamExampleMeta                                    INFO Found HelperTools = PrivateToolHandleArray(['xAODMaker::FileMetaDataCreatorTool/StreamExampleMeta_FileMetaDataCreatorTool','MakeEventStreamInfo/StreamExampleMeta_MakeEventStreamInfo','Athena::ThinningCacheTool/ThinningCacheTool_StreamExampleMeta'])
StreamExampleMeta                                    INFO Data output: ROOTTREE:SimplePoolFile5.root
StreamExampleMeta                                    INFO I/O reinitialization...
ClassIDSvc                                           INFO getRegistryEntries: read 583 CLIDRegistry entries for module ALL
ClassIDSvc                                           INFO getRegistryEntries: read 7 CLIDRegistry entries for module ALL
ClassIDSvc                                           INFO getRegistryEntries: read 40 CLIDRegistry entries for module ALL
ClassIDSvc                                           INFO getRegistryEntries: read 22 CLIDRegistry entries for module ALL
ClassIDSvc                                           INFO getRegistryEntries: read 24 CLIDRegistry entries for module ALL
ClassIDSvc                                           INFO getRegistryEntries: read 10 CLIDRegistry entries for module ALL
ClassIDSvc                                           INFO getRegistryEntries: read 6 CLIDRegistry entries for module ALL
EventSelector                                        INFO  Enter McEventSelector Initialization 
AthenaEventLoopMgr                                   INFO Setup EventSelector service EventSelector
ApplicationMgr                                       INFO Application Manager Initialized successfully
ApplicationMgr                                       INFO Application Manager Started successfully
EventPersistencySvc                                  INFO Added successfully Conversion service:McCnvSvc
AthenaEventLoopMgr                                   INFO   ===>>>  start of run 1    <<<===
IOVDbSvc                                             INFO Only 5 POOL conditions files will be open at once
IOVDbSvc                                             INFO Setting run/LB/time from EventSelector override in initialize
IOVDbSvc                                             INFO run/LB/time set to [1,1 : 0]
IOVDbSvc                                             INFO Initialised with 1 connections and 0 folders
IOVDbSvc                                             INFO Service IOVDbSvc initialised successfully
IOVDbSvc                                             INFO   AlgTool: ToolSvc.IOVDbMetaDataTool
AthenaEventLoopMgr                                   INFO   ===>>>  start processing event #4294967297, run #1 0 events processed so far  <<<===
WriteData                                           DEBUG in execute()
WriteData                                            INFO EventInfo event: 1  run: 1
WriteData                                            INFO registered all data
WriteCond                                           DEBUG in execute()
WriteCond                                            INFO Hit x = 101.235 y = 97.654 z = 126.672 detector = DummyHitDetector
WriteCond                                            INFO Hit x = 104.445 y = 91.9751 z = -5.26816 detector = DummyHitDetector
WriteCond                                            INFO Hit x = 107.655 y = 86.2962 z = -29.7652 detector = DummyHitDetector
WriteCond                                            INFO Hit x = 110.865 y = 80.6173 z = -40.0858 detector = DummyHitDetector
WriteCond                                            INFO Hit x = 114.075 y = 74.9384 z = -45.7741 detector = DummyHitDetector
WriteCond                                            INFO Hit x = 117.285 y = 69.2595 z = -49.3773 detector = DummyHitDetector
WriteCond                                            INFO Hit x = 120.495 y = 63.5806 z = -51.8642 detector = DummyHitDetector
WriteCond                                            INFO Hit x = 123.705 y = 57.9017 z = -53.6841 detector = DummyHitDetector
WriteCond                                            INFO Hit x = 126.915 y = 52.2228 z = -55.0735 detector = DummyHitDetector
WriteCond                                            INFO Hit x = 130.125 y = 46.5439 z = -56.169 detector = DummyHitDetector
WriteCond                                            INFO registered all data
ClassIDSvc                                           INFO getRegistryEntries: read 380 CLIDRegistry entries for module ALL
MetaDataSvc                                         DEBUG Not translating metadata item ID #2101
MetaDataSvc                                         DEBUG Not translating metadata item ID #9102
MetaDataSvc                                         DEBUG Not translating metadata item ID #38853911
MetaDataSvc                                         DEBUG Not translating metadata item ID #45903698
DbSession                                            INFO     Open     DbSession    
Domain[ROOT_All]                                     INFO >   Access   DbDomain     UPDATE    [ROOT_All] 
AthenaPoolCnvSvc                                    DEBUG setAttribute TREE_MAX_SIZE to 1099511627776L
AthenaPoolCnvSvc                                    DEBUG setAttribute DEFAULT_SPLITLEVEL to 0
AthenaPoolCnvSvc                                    DEBUG setAttribute STREAM_MEMBER_WISE to 1
AthenaPoolCnvSvc                                    DEBUG setAttribute DEFAULT_BUFFERSIZE to 32000
AthenaPoolCnvSvc                                    DEBUG setAttribute TREE_BRANCH_OFFSETTAB_LEN to 100
PersistencySvc::UserDB::fid()                       DEBUG lookupPFN: SimplePoolFile5.root returned FID: 'C949FD2E-3B8E-9343-AAE0-1E2306911C43' tech=ROOT_All
Domain[ROOT_All]                                     INFO ->  Access   DbDatabase   CREATE    [ROOT_All] C949FD2E-3B8E-9343-AAE0-1E2306911C43
Domain[ROOT_All]                                     INFO                           SimplePoolFile5.root
SimplePoolFile5.root                                DEBUG --> Access   DbContainer  CREATE    [ROOT_All] ##Shapes
##Shapes                                            DEBUG Opening
##Shapes                                            DEBUG    attributes# = 1
##Shapes                                            DEBUG Opened container ##Shapes of type ROOT_Tree
##Shapes                                            DEBUG No objects passing selection criteria... Container has 0 Entries in total.
SimplePoolFile5.root                                DEBUG --> Access   DbContainer  CREATE    [ROOT_All] ##Links
##Links                                             DEBUG Opening
##Links                                             DEBUG    attributes# = 1
##Links                                             DEBUG Opened container ##Links of type ROOT_Tree
##Links                                             DEBUG No objects passing selection criteria... Container has 0 Entries in total.
SimplePoolFile5.root                                DEBUG --> Access   DbContainer  CREATE    [ROOT_All] ##Params
##Params                                            DEBUG Opening
##Params                                            DEBUG    attributes# = 1
##Params                                            DEBUG Opened container ##Params of type ROOT_Tree
SimplePoolFile5.root                                DEBUG --->Adding Assoc :C949FD2E-3B8E-9343-AAE0-1E2306911C43/##Params [200]  (2 , ffffffffffffffff)
SimplePoolFile5.root                                DEBUG ---->ClassID:DA8F479C-09BC-49D4-94BC-99D025A23A3B
##Params                                            DEBUG No objects passing selection criteria... Container has 0 Entries in total.
AthenaPoolCnvSvc                                    DEBUG setAttribute CONTAINER_SPLITLEVEL to 0 for db: SimplePoolFile5.root and cont: TTree=POOLContainerForm(DataHeaderForm)
StorageSvc                                           INFO Building shape according to reflection information using shape ID for:
StorageSvc                                           INFO EventInfo_p4 [C634FDB6-CC4B-4BA2-B8F9-A84BE6A786C7]
SimplePoolFile5.root                                DEBUG --> Access   DbContainer  CREA/UPDA [ROOT_Tree] CollectionTree(EventInfo_p4/McEventInfo)
CollectionTree(EventInfo_p4/McEventInfo)            DEBUG Opening
CollectionTree(EventInfo_p4/McEventInfo)            DEBUG    attributes# = 1
CollectionTree(EventInfo_p4/McEventInfo)            DEBUG Branch container 'EventInfo_p4_McEventInfo'
CollectionTree(EventInfo_p4/McEventInfo)            DEBUG Opened container CollectionTree(EventInfo_p4/McEventInfo) of type ROOT_Tree
SimplePoolFile5.root                                DEBUG --->Adding Assoc :C949FD2E-3B8E-9343-AAE0-1E2306911C43/CollectionTree(EventInfo_p4/McEventInfo) [202]  (3 , ffffffffffffffff)
SimplePoolFile5.root                                DEBUG ---->ClassID:C634FDB6-CC4B-4BA2-B8F9-A84BE6A786C7
SimplePoolFile5.root                                DEBUG --->Adding Shape[0 , C634FDB6-CC4B-4BA2-B8F9-A84BE6A786C7]:  [1 Column(s)] 
SimplePoolFile5.root                                DEBUG ---->Class:EventInfo_p4
SimplePoolFile5.root                                DEBUG ---->[0]:EventInfo_p4 Typ:EventInfo_p4 [21] Size:0 Offset:0 #Elements:1
StorageSvc                                           INFO Building shape according to reflection information using shape ID for:
StorageSvc                                           INFO ExampleHitContainer_p1 [6BB89FA1-EB62-4641-97CA-3F8DB6588053]
SimplePoolFile5.root                                DEBUG --> Access   DbContainer  CREA/UPDA [ROOT_Tree] CollectionTree(ExampleHitContainer_p1/MyHits)
CollectionTree(ExampleHitContainer_p1/MyHits)       DEBUG Opening
CollectionTree(ExampleHitContainer_p1/MyHits)       DEBUG    attributes# = 1
CollectionTree(ExampleHitContainer_p1/MyHits)       DEBUG Branch container 'ExampleHitContainer_p1_MyHits'
CollectionTree(ExampleHitContainer_p1/MyHits)       DEBUG Opened container CollectionTree(ExampleHitContainer_p1/MyHits) of type ROOT_Tree
SimplePoolFile5.root                                DEBUG --->Adding Assoc :C949FD2E-3B8E-9343-AAE0-1E2306911C43/CollectionTree(ExampleHitContainer_p1/MyHits) [202]  (4 , ffffffffffffffff)
SimplePoolFile5.root                                DEBUG ---->ClassID:6BB89FA1-EB62-4641-97CA-3F8DB6588053
SimplePoolFile5.root                                DEBUG --->Adding Shape[1 , 6BB89FA1-EB62-4641-97CA-3F8DB6588053]:  [1 Column(s)] 
SimplePoolFile5.root                                DEBUG ---->Class:ExampleHitContainer_p1
SimplePoolFile5.root                                DEBUG ---->[0]:ExampleHitContainer_p1 Typ:ExampleHitContainer_p1 [21] Size:0 Offset:0 #Elements:1
StorageSvc                                           INFO Building shape according to reflection information using shape ID for:
StorageSvc                                           INFO DataHeader_p6 [4DDBD295-EFCE-472A-9EC8-15CD35A9EB8D]
SimplePoolFile5.root                                DEBUG --> Access   DbContainer  CREA/UPDA [ROOT_Tree] POOLContainer(DataHeader)
POOLContainer(DataHeader)                           DEBUG Opening
POOLContainer(DataHeader)                           DEBUG    attributes# = 1
POOLContainer(DataHeader)                           DEBUG Branch container 'DataHeader'
POOLContainer(DataHeader)                           DEBUG Opened container POOLContainer(DataHeader) of type ROOT_Tree
SimplePoolFile5.root                                DEBUG --->Adding Assoc :C949FD2E-3B8E-9343-AAE0-1E2306911C43/POOLContainer(DataHeader) [202]  (5 , ffffffffffffffff)
SimplePoolFile5.root                                DEBUG ---->ClassID:4DDBD295-EFCE-472A-9EC8-15CD35A9EB8D
SimplePoolFile5.root                                DEBUG --->Adding Shape[2 , 4DDBD295-EFCE-472A-9EC8-15CD35A9EB8D]:  [1 Column(s)] 
SimplePoolFile5.root                                DEBUG ---->Class:DataHeader_p6
SimplePoolFile5.root                                DEBUG ---->[0]:DataHeader_p6 Typ:DataHeader_p6 [21] Size:0 Offset:0 #Elements:1
StorageSvc                                           INFO Building shape according to reflection information using shape ID for:
StorageSvc                                           INFO DataHeaderForm_p6 [7BE56CEF-C866-4BEE-9348-A5F34B5F1DAD]
SimplePoolFile5.root                                DEBUG --> Access   DbContainer  CREA/UPDA [ROOT_Tree] POOLContainerForm(DataHeaderForm)
POOLContainerForm(DataHeaderForm)                   DEBUG Opening
POOLContainerForm(DataHeaderForm)                   DEBUG    attributes# = 1
POOLContainerForm(DataHeaderForm)                   DEBUG Branch container 'DataHeaderForm'
POOLContainerForm(DataHeaderForm)                   DEBUG Opened container POOLContainerForm(DataHeaderForm) of type ROOT_Tree
SimplePoolFile5.root                                DEBUG --->Adding Assoc :C949FD2E-3B8E-9343-AAE0-1E2306911C43/POOLContainerForm(DataHeaderForm) [202]  (6 , ffffffffffffffff)
SimplePoolFile5.root                                DEBUG ---->ClassID:7BE56CEF-C866-4BEE-9348-A5F34B5F1DAD
SimplePoolFile5.root                                DEBUG --->Adding Shape[3 , 7BE56CEF-C866-4BEE-9348-A5F34B5F1DAD]:  [1 Column(s)] 
SimplePoolFile5.root                                DEBUG ---->Class:DataHeaderForm_p6
SimplePoolFile5.root                                DEBUG ---->[0]:DataHeaderForm_p6 Typ:DataHeaderForm_p6 [21] Size:0 Offset:0 #Elements:1
SimplePoolFile5.root                                DEBUG DB Action Commit
ClassIDSvc                                           INFO getRegistryEntries: read 14 CLIDRegistry entries for module ALL
MetaDataSvc                                         DEBUG MetaDataSvc will handle EventStreamInfo ClassID: 167728019
AthenaEventLoopMgr                                   INFO   ===>>>  done processing event #4294967297, run #1 1 events processed so far  <<<===
AthenaEventLoopMgr                                   INFO   ===>>>  start processing event #4294967298, run #1 1 events processed so far  <<<===
WriteData                                           DEBUG in execute()
WriteData                                            INFO EventInfo event: 2  run: 1
WriteData                                            INFO registered all data
WriteCond                                           DEBUG in execute()
WriteCond                                            INFO Hit x = 201.235 y = 97.654 z = 26.6723 detector = DummyHitDetector
WriteCond                                            INFO Hit x = 204.445 y = 91.9751 z = -105.268 detector = DummyHitDetector
WriteCond                                            INFO Hit x = 207.655 y = 86.2962 z = -129.765 detector = DummyHitDetector
WriteCond                                            INFO Hit x = 210.865 y = 80.6173 z = -140.086 detector = DummyHitDetector
WriteCond                                            INFO Hit x = 214.075 y = 74.9384 z = -145.774 detector = DummyHitDetector
WriteCond                                            INFO Hit x = 217.285 y = 69.2595 z = -149.377 detector = DummyHitDetector
WriteCond                                            INFO Hit x = 220.495 y = 63.5806 z = -151.864 detector = DummyHitDetector
WriteCond                                            INFO Hit x = 223.705 y = 57.9017 z = -153.684 detector = DummyHitDetector
WriteCond                                            INFO Hit x = 226.915 y = 52.2228 z = -155.073 detector = DummyHitDetector
WriteCond                                            INFO Hit x = 230.125 y = 46.5439 z = -156.169 detector = DummyHitDetector
WriteCond                                            INFO registered all data
MetaDataSvc                                         DEBUG Not translating metadata item ID #2101
MetaDataSvc                                         DEBUG Not translating metadata item ID #9102
MetaDataSvc                                         DEBUG Not translating metadata item ID #38853911
MetaDataSvc                                         DEBUG Not translating metadata item ID #45903698
SimplePoolFile5.root                                DEBUG DB Action Commit
AthenaEventLoopMgr                                   INFO   ===>>>  done processing event #4294967298, run #1 2 events processed so far  <<<===
AthenaEventLoopMgr                                   INFO   ===>>>  start processing event #4294967299, run #1 2 events processed so far  <<<===
WriteData                                           DEBUG in execute()
WriteData                                            INFO EventInfo event: 3  run: 1
WriteData                                            INFO registered all data
WriteCond                                           DEBUG in execute()
WriteCond                                            INFO Hit x = 301.235 y = 97.654 z = -73.3277 detector = DummyHitDetector
WriteCond                                            INFO Hit x = 304.445 y = 91.9751 z = -205.268 detector = DummyHitDetector
WriteCond                                            INFO Hit x = 307.655 y = 86.2962 z = -229.765 detector = DummyHitDetector
WriteCond                                            INFO Hit x = 310.865 y = 80.6173 z = -240.086 detector = DummyHitDetector
WriteCond                                            INFO Hit x = 314.075 y = 74.9384 z = -245.774 detector = DummyHitDetector
WriteCond                                            INFO Hit x = 317.285 y = 69.2595 z = -249.377 detector = DummyHitDetector
WriteCond                                            INFO Hit x = 320.495 y = 63.5806 z = -251.864 detector = DummyHitDetector
WriteCond                                            INFO Hit x = 323.705 y = 57.9017 z = -253.684 detector = DummyHitDetector
WriteCond                                            INFO Hit x = 326.915 y = 52.2228 z = -255.073 detector = DummyHitDetector
WriteCond                                            INFO Hit x = 330.125 y = 46.5439 z = -256.169 detector = DummyHitDetector
WriteCond                                            INFO registered all data
MetaDataSvc                                         DEBUG Not translating metadata item ID #2101
MetaDataSvc                                         DEBUG Not translating metadata item ID #9102
MetaDataSvc                                         DEBUG Not translating metadata item ID #38853911
MetaDataSvc                                         DEBUG Not translating metadata item ID #45903698
SimplePoolFile5.root                                DEBUG DB Action Commit
AthenaEventLoopMgr                                   INFO   ===>>>  done processing event #4294967299, run #1 3 events processed so far  <<<===
AthenaEventLoopMgr                                   INFO   ===>>>  start processing event #, run #1 3 events processed so far  <<<===
WriteData                                           DEBUG in execute()
WriteData                                            INFO EventInfo event: 4  run: 1
WriteData                                            INFO registered all data
WriteCond                                           DEBUG in execute()
WriteCond                                            INFO Hit x = 401.235 y = 97.654 z = -173.328 detector = DummyHitDetector
WriteCond                                            INFO Hit x = 404.445 y = 91.9751 z = -305.268 detector = DummyHitDetector
WriteCond                                            INFO Hit x = 407.655 y = 86.2962 z = -329.765 detector = DummyHitDetector
WriteCond                                            INFO Hit x = 410.865 y = 80.6173 z = -340.086 detector = DummyHitDetector
WriteCond                                            INFO Hit x = 414.075 y = 74.9384 z = -345.774 detector = DummyHitDetector
WriteCond                                            INFO Hit x = 417.285 y = 69.2595 z = -349.377 detector = DummyHitDetector
WriteCond                                            INFO Hit x = 420.495 y = 63.5806 z = -351.864 detector = DummyHitDetector
WriteCond                                            INFO Hit x = 423.705 y = 57.9017 z = -353.684 detector = DummyHitDetector
WriteCond                                            INFO Hit x = 426.915 y = 52.2228 z = -355.073 detector = DummyHitDetector
WriteCond                                            INFO Hit x = 430.125 y = 46.5439 z = -356.169 detector = DummyHitDetector
WriteCond                                            INFO registered all data
MetaDataSvc                                         DEBUG Not translating metadata item ID #2101
MetaDataSvc                                         DEBUG Not translating metadata item ID #9102
MetaDataSvc                                         DEBUG Not translating metadata item ID #38853911
MetaDataSvc                                         DEBUG Not translating metadata item ID #45903698
SimplePoolFile5.root                                DEBUG DB Action Commit
AthenaEventLoopMgr                                   INFO   ===>>>  done processing event #, run #1 4 events processed so far  <<<===
AthenaEventLoopMgr                                   INFO   ===>>>  start processing event #1, run #1 4 events processed so far  <<<===
WriteData                                           DEBUG in execute()
WriteData                                            INFO EventInfo event: 5  run: 1
WriteData                                            INFO registered all data
WriteCond                                           DEBUG in execute()
WriteCond                                            INFO Hit x = 501.235 y = 97.654 z = -273.328 detector = DummyHitDetector
WriteCond                                            INFO Hit x = 504.445 y = 91.9751 z = -405.268 detector = DummyHitDetector
WriteCond                                            INFO Hit x = 507.655 y = 86.2962 z = -429.765 detector = DummyHitDetector
WriteCond                                            INFO Hit x = 510.865 y = 80.6173 z = -440.086 detector = DummyHitDetector
WriteCond                                            INFO Hit x = 514.075 y = 74.9384 z = -445.774 detector = DummyHitDetector
WriteCond                                            INFO Hit x = 517.285 y = 69.2595 z = -449.377 detector = DummyHitDetector
WriteCond                                            INFO Hit x = 520.495 y = 63.5806 z = -451.864 detector = DummyHitDetector
WriteCond                                            INFO Hit x = 523.705 y = 57.9017 z = -453.684 detector = DummyHitDetector
WriteCond                                            INFO Hit x = 526.915 y = 52.2228 z = -455.073 detector = DummyHitDetector
WriteCond                                            INFO Hit x = 530.125 y = 46.5439 z = -456.169 detector = DummyHitDetector
WriteCond                                            INFO registered all data
MetaDataSvc                                         DEBUG Not translating metadata item ID #2101
MetaDataSvc                                         DEBUG Not translating metadata item ID #9102
MetaDataSvc                                         DEBUG Not translating metadata item ID #38853911
MetaDataSvc                                         DEBUG Not translating metadata item ID #45903698
SimplePoolFile5.root                                DEBUG DB Action Commit
AthenaEventLoopMgr                                   INFO   ===>>>  done processing event #1, run #1 5 events processed so far  <<<===
AthenaEventLoopMgr                                   INFO   ===>>>  start processing event #2, run #1 5 events processed so far  <<<===
WriteData                                           DEBUG in execute()
WriteData                                            INFO EventInfo event: 6  run: 1
WriteData                                            INFO registered all data
WriteCond                                           DEBUG in execute()
WriteCond                                            INFO Hit x = 601.235 y = 97.654 z = -373.328 detector = DummyHitDetector
WriteCond                                            INFO Hit x = 604.445 y = 91.9751 z = -505.268 detector = DummyHitDetector
WriteCond                                            INFO Hit x = 607.655 y = 86.2962 z = -529.765 detector = DummyHitDetector
WriteCond                                            INFO Hit x = 610.865 y = 80.6173 z = -540.086 detector = DummyHitDetector
WriteCond                                            INFO Hit x = 614.075 y = 74.9384 z = -545.774 detector = DummyHitDetector
WriteCond                                            INFO Hit x = 617.285 y = 69.2595 z = -549.377 detector = DummyHitDetector
WriteCond                                            INFO Hit x = 620.495 y = 63.5806 z = -551.864 detector = DummyHitDetector
WriteCond                                            INFO Hit x = 623.705 y = 57.9017 z = -553.684 detector = DummyHitDetector
WriteCond                                            INFO Hit x = 626.915 y = 52.2228 z = -555.073 detector = DummyHitDetector
WriteCond                                            INFO Hit x = 630.125 y = 46.5439 z = -556.169 detector = DummyHitDetector
WriteCond                                            INFO registered all data
MetaDataSvc                                         DEBUG Not translating metadata item ID #2101
MetaDataSvc                                         DEBUG Not translating metadata item ID #9102
MetaDataSvc                                         DEBUG Not translating metadata item ID #38853911
MetaDataSvc                                         DEBUG Not translating metadata item ID #45903698
SimplePoolFile5.root                                DEBUG DB Action Commit
AthenaEventLoopMgr                                   INFO   ===>>>  done processing event #2, run #1 6 events processed so far  <<<===
AthenaEventLoopMgr                                   INFO   ===>>>  start processing event #3, run #1 6 events processed so far  <<<===
WriteData                                           DEBUG in execute()
WriteData                                            INFO EventInfo event: 7  run: 1
WriteData                                            INFO registered all data
WriteCond                                           DEBUG in execute()
WriteCond                                            INFO Hit x = 701.235 y = 97.654 z = -473.328 detector = DummyHitDetector
WriteCond                                            INFO Hit x = 704.445 y = 91.9751 z = -605.268 detector = DummyHitDetector
WriteCond                                            INFO Hit x = 707.655 y = 86.2962 z = -629.765 detector = DummyHitDetector
WriteCond                                            INFO Hit x = 710.865 y = 80.6173 z = -640.086 detector = DummyHitDetector
WriteCond                                            INFO Hit x = 714.075 y = 74.9384 z = -645.774 detector = DummyHitDetector
WriteCond                                            INFO Hit x = 717.285 y = 69.2595 z = -649.377 detector = DummyHitDetector
WriteCond                                            INFO Hit x = 720.495 y = 63.5806 z = -651.864 detector = DummyHitDetector
WriteCond                                            INFO Hit x = 723.705 y = 57.9017 z = -653.684 detector = DummyHitDetector
WriteCond                                            INFO Hit x = 726.915 y = 52.2228 z = -655.073 detector = DummyHitDetector
WriteCond                                            INFO Hit x = 730.125 y = 46.5439 z = -656.169 detector = DummyHitDetector
WriteCond                                            INFO registered all data
MetaDataSvc                                         DEBUG Not translating metadata item ID #2101
MetaDataSvc                                         DEBUG Not translating metadata item ID #9102
MetaDataSvc                                         DEBUG Not translating metadata item ID #38853911
MetaDataSvc                                         DEBUG Not translating metadata item ID #45903698
SimplePoolFile5.root                                DEBUG DB Action Commit
AthenaEventLoopMgr                                   INFO   ===>>>  done processing event #3, run #1 7 events processed so far  <<<===
AthenaEventLoopMgr                                   INFO   ===>>>  start processing event #4, run #1 7 events processed so far  <<<===
WriteData                                           DEBUG in execute()
WriteData                                            INFO EventInfo event: 8  run: 1
WriteData                                            INFO registered all data
WriteCond                                           DEBUG in execute()
WriteCond                                            INFO Hit x = 801.235 y = 97.654 z = -573.328 detector = DummyHitDetector
WriteCond                                            INFO Hit x = 804.445 y = 91.9751 z = -705.268 detector = DummyHitDetector
WriteCond                                            INFO Hit x = 807.655 y = 86.2962 z = -729.765 detector = DummyHitDetector
WriteCond                                            INFO Hit x = 810.865 y = 80.6173 z = -740.086 detector = DummyHitDetector
WriteCond                                            INFO Hit x = 814.075 y = 74.9384 z = -745.774 detector = DummyHitDetector
WriteCond                                            INFO Hit x = 817.285 y = 69.2595 z = -749.377 detector = DummyHitDetector
WriteCond                                            INFO Hit x = 820.495 y = 63.5806 z = -751.864 detector = DummyHitDetector
WriteCond                                            INFO Hit x = 823.705 y = 57.9017 z = -753.684 detector = DummyHitDetector
WriteCond                                            INFO Hit x = 826.915 y = 52.2228 z = -755.073 detector = DummyHitDetector
WriteCond                                            INFO Hit x = 830.125 y = 46.5439 z = -756.169 detector = DummyHitDetector
WriteCond                                            INFO registered all data
MetaDataSvc                                         DEBUG Not translating metadata item ID #2101
MetaDataSvc                                         DEBUG Not translating metadata item ID #9102
MetaDataSvc                                         DEBUG Not translating metadata item ID #38853911
MetaDataSvc                                         DEBUG Not translating metadata item ID #45903698
SimplePoolFile5.root                                DEBUG DB Action Commit
AthenaEventLoopMgr                                   INFO   ===>>>  done processing event #4, run #1 8 events processed so far  <<<===
AthenaEventLoopMgr                                   INFO   ===>>>  start processing event #5, run #1 8 events processed so far  <<<===
WriteData                                           DEBUG in execute()
WriteData                                            INFO EventInfo event: 9  run: 1
WriteData                                            INFO registered all data
WriteCond                                           DEBUG in execute()
WriteCond                                            INFO Hit x = 901.235 y = 97.654 z = -673.328 detector = DummyHitDetector
WriteCond                                            INFO Hit x = 904.445 y = 91.9751 z = -805.268 detector = DummyHitDetector
WriteCond                                            INFO Hit x = 907.655 y = 86.2962 z = -829.765 detector = DummyHitDetector
WriteCond                                            INFO Hit x = 910.865 y = 80.6173 z = -840.086 detector = DummyHitDetector
WriteCond                                            INFO Hit x = 914.075 y = 74.9384 z = -845.774 detector = DummyHitDetector
WriteCond                                            INFO Hit x = 917.285 y = 69.2595 z = -849.377 detector = DummyHitDetector
WriteCond                                            INFO Hit x = 920.495 y = 63.5806 z = -851.864 detector = DummyHitDetector
WriteCond                                            INFO Hit x = 923.705 y = 57.9017 z = -853.684 detector = DummyHitDetector
WriteCond                                            INFO Hit x = 926.915 y = 52.2228 z = -855.073 detector = DummyHitDetector
WriteCond                                            INFO Hit x = 930.125 y = 46.5439 z = -856.169 detector = DummyHitDetector
WriteCond                                            INFO registered all data
MetaDataSvc                                         DEBUG Not translating metadata item ID #2101
MetaDataSvc                                         DEBUG Not translating metadata item ID #9102
MetaDataSvc                                         DEBUG Not translating metadata item ID #38853911
MetaDataSvc                                         DEBUG Not translating metadata item ID #45903698
SimplePoolFile5.root                                DEBUG DB Action Commit
AthenaEventLoopMgr                                   INFO   ===>>>  done processing event #5, run #1 9 events processed so far  <<<===
AthenaEventLoopMgr                                   INFO   ===>>>  start processing event #6, run #1 9 events processed so far  <<<===
WriteData                                           DEBUG in execute()
WriteData                                            INFO EventInfo event: 10  run: 1
WriteData                                            INFO registered all data
WriteCond                                           DEBUG in execute()
WriteCond                                            INFO Hit x = 1001.23 y = 97.654 z = -773.328 detector = DummyHitDetector
WriteCond                                            INFO Hit x = 1004.44 y = 91.9751 z = -905.268 detector = DummyHitDetector
WriteCond                                            INFO Hit x = 1007.65 y = 86.2962 z = -929.765 detector = DummyHitDetector
WriteCond                                            INFO Hit x = 1010.86 y = 80.6173 z = -940.086 detector = DummyHitDetector
WriteCond                                            INFO Hit x = 1014.07 y = 74.9384 z = -945.774 detector = DummyHitDetector
WriteCond                                            INFO Hit x = 1017.28 y = 69.2595 z = -949.377 detector = DummyHitDetector
WriteCond                                            INFO Hit x = 1020.49 y = 63.5806 z = -951.864 detector = DummyHitDetector
WriteCond                                            INFO Hit x = 1023.7 y = 57.9017 z = -953.684 detector = DummyHitDetector
WriteCond                                            INFO Hit x = 1026.91 y = 52.2228 z = -955.073 detector = DummyHitDetector
WriteCond                                            INFO Hit x = 1030.12 y = 46.5439 z = -956.169 detector = DummyHitDetector
WriteCond                                            INFO registered all data
MetaDataSvc                                         DEBUG Not translating metadata item ID #2101
MetaDataSvc                                         DEBUG Not translating metadata item ID #9102
MetaDataSvc                                         DEBUG Not translating metadata item ID #38853911
MetaDataSvc                                         DEBUG Not translating metadata item ID #45903698
SimplePoolFile5.root                                DEBUG DB Action Commit
AthenaEventLoopMgr                                   INFO   ===>>>  done processing event #6, run #1 10 events processed so far  <<<===
WriteCond                                            INFO in finalize()
WriteCond                                            INFO Pedestal x = 56568 y = 7209.89 z = -47603.9 string = <..........o..........o..........o..........o..........o..........o..........o..........o..........o..........o>
MetaDataSvc                                         DEBUG MetaDataSvc::stop()
MetaDataSvc                                         DEBUG MetaDataSvc will handle xAOD::FileMetaData_v1 ClassID: 178309087
MetaDataSvc                                         DEBUG MetaDataSvc will handle xAOD::FileMetaDataAuxInfo_v1 ClassID: 73252552
MetaDataSvc                                         DEBUG  calling metaDataStop for ToolSvc.xAODMaker::FileMetaDataTool
MetaDataSvc                                         DEBUG Locking metadata tools
MetaDataSvc                                         DEBUG Not translating metadata item ID #9102
MetaDataSvc                                         DEBUG Transforming MetaCont<xAOD::FileMetaDataAuxInfo> to xAOD::FileMetaDataAuxInfo for output
MetaDataSvc                                         DEBUG Transforming MetaCont<EventStreamInfo> to EventStreamInfo for output
MetaDataSvc                                         DEBUG Transforming MetaCont<xAOD::FileMetaData> to xAOD::FileMetaData for output
MetaDataSvc                                         DEBUG Not translating metadata item ID #1316383046
StorageSvc                                           INFO Building shape according to reflection information using shape ID for:
StorageSvc                                           INFO xAOD::FileMetaDataAuxInfo_v1 [BEE2BECF-A936-4078-9FDD-AD703C9ADF9F]
SimplePoolFile5.root                                DEBUG --> Access   DbContainer  CREA/UPDA [ROOT_Tree] MetaData(xAOD::FileMetaDataAuxInfo_v1/FileMetaDataAux.)
MetaData(xAOD::FileMetaDataAuxInfo_v1/FileMeta...)  DEBUG Opening
MetaData(xAOD::FileMetaDataAuxInfo_v1/FileMeta...)  DEBUG    attributes# = 1
MetaData(xAOD::FileMetaDataAuxInfo_v1/FileMeta...)  DEBUG Branch container 'xAOD::FileMetaDataAuxInfo_v1_FileMetaDataAux.'
MetaData(xAOD::FileMetaDataAuxInfo_v1/FileMeta...)  DEBUG Opened container MetaData(xAOD::FileMetaDataAuxInfo_v1/FileMetaDataAux.) of type ROOT_Tree
SimplePoolFile5.root                                DEBUG --->Adding Assoc :C949FD2E-3B8E-9343-AAE0-1E2306911C43/MetaData(xAOD::FileMetaDataAuxInfo_v1/FileMetaDataAux.) [202]  (7 , ffffffffffffffff)
SimplePoolFile5.root                                DEBUG ---->ClassID:BEE2BECF-A936-4078-9FDD-AD703C9ADF9F
SimplePoolFile5.root                                DEBUG --->Adding Shape[4 , BEE2BECF-A936-4078-9FDD-AD703C9ADF9F]:  [1 Column(s)] 
SimplePoolFile5.root                                DEBUG ---->Class:xAOD::FileMetaDataAuxInfo_v1
SimplePoolFile5.root                                DEBUG ---->[0]:xAOD::FileMetaDataAuxInfo_v1 Typ:xAOD::FileMetaDataAuxInfo_v1 [21] Size:0 Offset:0 #Elements:1
SimplePoolFile5.root                                DEBUG --> Access   DbContainer  CREA/UPDA [ROOT_Tree] MetaData(ExampleHitContainer_p1/PedestalWriteData)
MetaData(ExampleHitContainer_p1/PedestalWriteData)  DEBUG Opening
MetaData(ExampleHitContainer_p1/PedestalWriteData)  DEBUG    attributes# = 1
MetaData(ExampleHitContainer_p1/PedestalWriteData)  DEBUG Branch container 'ExampleHitContainer_p1_PedestalWriteData'
MetaData(ExampleHitContainer_p1/PedestalWriteData)  DEBUG Opened container MetaData(ExampleHitContainer_p1/PedestalWriteData) of type ROOT_Tree
SimplePoolFile5.root                                DEBUG --->Adding Assoc :C949FD2E-3B8E-9343-AAE0-1E2306911C43/MetaData(ExampleHitContainer_p1/PedestalWriteData) [202]  (8 , ffffffffffffffff)
SimplePoolFile5.root                                DEBUG ---->ClassID:6BB89FA1-EB62-4641-97CA-3F8DB6588053
StorageSvc                                           INFO Building shape according to reflection information using shape ID for:
StorageSvc                                           INFO EventStreamInfo_p3 [11DF1B8C-0DEE-4687-80D7-E74B520ACBB4]
SimplePoolFile5.root                                DEBUG --> Access   DbContainer  CREA/UPDA [ROOT_Tree] MetaData(EventStreamInfo_p3/StreamExampleMeta)
MetaData(EventStreamInfo_p3/StreamExampleMeta)      DEBUG Opening
MetaData(EventStreamInfo_p3/StreamExampleMeta)      DEBUG    attributes# = 1
MetaData(EventStreamInfo_p3/StreamExampleMeta)      DEBUG Branch container 'EventStreamInfo_p3_StreamExampleMeta'
MetaData(EventStreamInfo_p3/StreamExampleMeta)      DEBUG Opened container MetaData(EventStreamInfo_p3/StreamExampleMeta) of type ROOT_Tree
SimplePoolFile5.root                                DEBUG --->Adding Assoc :C949FD2E-3B8E-9343-AAE0-1E2306911C43/MetaData(EventStreamInfo_p3/StreamExampleMeta) [202]  (9 , ffffffffffffffff)
SimplePoolFile5.root                                DEBUG ---->ClassID:11DF1B8C-0DEE-4687-80D7-E74B520ACBB4
SimplePoolFile5.root                                DEBUG --->Adding Shape[5 , 11DF1B8C-0DEE-4687-80D7-E74B520ACBB4]:  [1 Column(s)] 
SimplePoolFile5.root                                DEBUG ---->Class:EventStreamInfo_p3
SimplePoolFile5.root                                DEBUG ---->[0]:EventStreamInfo_p3 Typ:EventStreamInfo_p3 [21] Size:0 Offset:0 #Elements:1
StorageSvc                                           INFO Building shape according to reflection information using shape ID for:
StorageSvc                                           INFO xAOD::FileMetaData_v1 [C87E3828-4A7A-480A-95DE-0339539F6A0F]
SimplePoolFile5.root                                DEBUG --> Access   DbContainer  CREA/UPDA [ROOT_Tree] MetaData(xAOD::FileMetaData_v1/FileMetaData)
MetaData(xAOD::FileMetaData_v1/FileMetaData)        DEBUG Opening
MetaData(xAOD::FileMetaData_v1/FileMetaData)        DEBUG    attributes# = 1
MetaData(xAOD::FileMetaData_v1/FileMetaData)        DEBUG Branch container 'xAOD::FileMetaData_v1_FileMetaData'
MetaData(xAOD::FileMetaData_v1/FileMetaData)        DEBUG Opened container MetaData(xAOD::FileMetaData_v1/FileMetaData) of type ROOT_Tree
SimplePoolFile5.root                                DEBUG --->Adding Assoc :C949FD2E-3B8E-9343-AAE0-1E2306911C43/MetaData(xAOD::FileMetaData_v1/FileMetaData) [202]  (a , ffffffffffffffff)
SimplePoolFile5.root                                DEBUG ---->ClassID:C87E3828-4A7A-480A-95DE-0339539F6A0F
SimplePoolFile5.root                                DEBUG --->Adding Shape[6 , C87E3828-4A7A-480A-95DE-0339539F6A0F]:  [1 Column(s)] 
SimplePoolFile5.root                                DEBUG ---->Class:xAOD::FileMetaData_v1
SimplePoolFile5.root                                DEBUG ---->[0]:xAOD::FileMetaData_v1 Typ:xAOD::FileMetaData_v1 [21] Size:0 Offset:0 #Elements:1
StorageSvc                                           INFO Building shape according to reflection information using shape ID for:
StorageSvc                                           INFO IOVMetaDataContainer_p1 [6C2DE6DF-6D52-43F6-B435-9F29812F40C0]
SimplePoolFile5.root                                DEBUG --> Access   DbContainer  CREA/UPDA [ROOT_Tree] MetaData(IOVMetaDataContainer_p1//TagInfo)
MetaData(IOVMetaDataContainer_p1//TagInfo)          DEBUG Opening
MetaData(IOVMetaDataContainer_p1//TagInfo)          DEBUG    attributes# = 1
MetaData(IOVMetaDataContainer_p1//TagInfo)          DEBUG Branch container 'IOVMetaDataContainer_p1__TagInfo'
MetaData(IOVMetaDataContainer_p1//TagInfo)          DEBUG Opened container MetaData(IOVMetaDataContainer_p1//TagInfo) of type ROOT_Tree
SimplePoolFile5.root                                DEBUG --->Adding Assoc :C949FD2E-3B8E-9343-AAE0-1E2306911C43/MetaData(IOVMetaDataContainer_p1//TagInfo) [202]  (b , ffffffffffffffff)
SimplePoolFile5.root                                DEBUG ---->ClassID:6C2DE6DF-6D52-43F6-B435-9F29812F40C0
SimplePoolFile5.root                                DEBUG --->Adding Shape[7 , 6C2DE6DF-6D52-43F6-B435-9F29812F40C0]:  [1 Column(s)] 
SimplePoolFile5.root                                DEBUG ---->Class:IOVMetaDataContainer_p1
SimplePoolFile5.root                                DEBUG ---->[0]:IOVMetaDataContainer_p1 Typ:IOVMetaDataContainer_p1 [21] Size:0 Offset:0 #Elements:1
SimplePoolFile5.root                                DEBUG --> Access   DbContainer  CREA/UPDA [ROOT_Tree] MetaDataHdr(DataHeader)
MetaDataHdr(DataHeader)                             DEBUG Opening
MetaDataHdr(DataHeader)                             DEBUG    attributes# = 1
MetaDataHdr(DataHeader)                             DEBUG Branch container 'DataHeader'
MetaDataHdr(DataHeader)                             DEBUG Opened container MetaDataHdr(DataHeader) of type ROOT_Tree
SimplePoolFile5.root                                DEBUG --->Adding Assoc :C949FD2E-3B8E-9343-AAE0-1E2306911C43/MetaDataHdr(DataHeader) [202]  (c , ffffffffffffffff)
SimplePoolFile5.root                                DEBUG ---->ClassID:4DDBD295-EFCE-472A-9EC8-15CD35A9EB8D
SimplePoolFile5.root                                DEBUG --> Access   DbContainer  CREA/UPDA [ROOT_Tree] MetaDataHdrForm(DataHeaderForm)
MetaDataHdrForm(DataHeaderForm)                     DEBUG Opening
MetaDataHdrForm(DataHeaderForm)                     DEBUG    attributes# = 1
MetaDataHdrForm(DataHeaderForm)                     DEBUG Branch container 'DataHeaderForm'
MetaDataHdrForm(DataHeaderForm)                     DEBUG Opened container MetaDataHdrForm(DataHeaderForm) of type ROOT_Tree
SimplePoolFile5.root                                DEBUG --->Adding Assoc :C949FD2E-3B8E-9343-AAE0-1E2306911C43/MetaDataHdrForm(DataHeaderForm) [202]  (d , ffffffffffffffff)
SimplePoolFile5.root                                DEBUG ---->ClassID:7BE56CEF-C866-4BEE-9348-A5F34B5F1DAD
SimplePoolFile5.root                                DEBUG DB Action Commit
ClassIDSvc                                           INFO getRegistryEntries: read 12 CLIDRegistry entries for module ALL
StreamExampleMeta                                    INFO Metadata records written: 11
MetaDataSvc                                         DEBUG Unlocking metadata tools
PoolSvc                                             DEBUG Disconnect request for contextId=0
Domain[ROOT_All]                                     INFO >   Deaccess DbDomain     READ      [ROOT_All] 
PoolSvc                                             DEBUG Disconnected PersistencySvc session
PoolSvc                                             DEBUG Disconnect request for contextId=1
SimplePoolFile5.root                                DEBUG DB Action Commit
StorageSvc                                          DEBUG Disconnect request for database: FID=C949FD2E-3B8E-9343-AAE0-1E2306911C43 PFN=SimplePoolFile5.root
StorageSvc                                          DEBUG Closing database: FID=C949FD2E-3B8E-9343-AAE0-1E2306911C43
RootDatabase.close                                  DEBUG Closing DB SimplePoolFile5.root
Domain[ROOT_All]                                     INFO ->  Deaccess DbDatabase   CREATE    [ROOT_All] C949FD2E-3B8E-9343-AAE0-1E2306911C43
Domain[ROOT_All]                                     INFO >   Deaccess DbDomain     UPDATE    [ROOT_All] 
PoolSvc                                             DEBUG Disconnected PersistencySvc session
ApplicationMgr                                       INFO Application Manager Stopped successfully
WriteData                                            INFO in finalize()
WriteData                                           DEBUG Calling destructor
WriteCond                                           DEBUG Calling destructor
PoolSvc                                             DEBUG Disconnect request for contextId=2
IOVDbSvc                                             INFO  bytes in ((      0.00 ))s
IOVDbSvc                                             INFO Connection sqlite://;schema=cooldummy.db;dbname=OFLP200 : nConnect: 0 nFolders: 0 ReadTime: ((     0.00 ))s
AthDictLoaderSvc                                     INFO in finalize...
DecisionSvc                                          INFO Finalized successfully.
ToolSvc                                              INFO Removing all tools created by ToolSvc
AthenaPoolCnvSvc                                     INFO PerfStats ----------------------------------------
AthenaPoolCnvSvc                                     INFO PerfStats Timing Measurements for AthenaPoolCnvSvc
AthenaPoolCnvSvc                                     INFO PerfStats ----------------------------------------
AthenaPoolCnvSvc                                     INFO PerfStats | fRep_ALL        |             329 ms |
AthenaPoolCnvSvc                                     INFO PerfStats | commitOutput    |               1 ms |
AthenaPoolCnvSvc                                     INFO PerfStats | cRep_ALL        |              32 ms |
AthenaPoolCnvSvc                                     INFO PerfStats | cRepR_ALL       |             328 ms |
AthenaPoolCnvSvc                                     INFO PerfStats ----------------------------------------
FPEAuditor                                           INFO FPE summary for this job
FPEAuditor                                           INFO  FPE OVERFLOWs  : 0
FPEAuditor                                           INFO  FPE INVALIDs   : 0
FPEAuditor                                           INFO  FPE DIVBYZEROs : 0
ApplicationMgr                                       INFO Application Manager Finalized successfully
ApplicationMgr                                       INFO Application Manager Terminated successfully
Py:Athena            INFO leaving with code 0: "successful run"
